{
    "no_ref": "450039039403",
    "merchant": "Kopi Tukul",
    "merchant_id": "565656665",
    "harga": "895000",
    "waktu": "2019-08-20 16:12:01",
    "edc": "Bank CIMB Niaga",
    "dari_rekening": "60**********90"
}